<?xml version="1.0" encoding="utf-8"?>
<!-- Generator: Adobe Illustrator 17.0.0, SVG Export Plug-In . SVG Version: 6.00 Build 0)  -->
<!DOCTYPE svg PUBLIC "-//W3C//DTD SVG 1.1//EN" "http://www.w3.org/Graphics/SVG/1.1/DTD/svg11.dtd">
<svg version="1.1" id="Layer_1" xmlns="http://www.w3.org/2000/svg" xmlns:xlink="http://www.w3.org/1999/xlink" x="0px" y="0px"
	 width="392.953px" height="172.248px" viewBox="0 0 392.953 172.248" enable-background="new 0 0 392.953 172.248"
	 xml:space="preserve">
<g>
	<g>
		<g>
			<path fill="#FFFFFF" d="M65.591,121.281c0.79,0,1.592,0.04,2.402,0.119c0.81,0.08,1.532,0.158,2.165,0.237V108.05l-4.152-0.771
				v-0.771c0.594-0.119,1.266-0.237,2.018-0.356c0.632-0.079,1.394-0.178,2.284-0.296c0.89-0.119,1.888-0.238,2.996-0.356
				l0.593,0.297c-0.079,0.87-0.129,2.047-0.147,3.53c-0.021,1.483-0.03,3.194-0.03,5.133v26.817c0,0.989,0.03,1.909,0.089,2.759
				c0.06,0.852,0.128,1.612,0.208,2.284l3.204,0.713v0.712c-0.475,0.118-1.029,0.236-1.661,0.355
				c-0.555,0.08-1.197,0.178-1.929,0.297c-0.732,0.118-1.553,0.217-2.462,0.297l-0.594-0.237c-0.158-0.91-0.267-1.859-0.326-2.849
				c-0.06-0.987-0.09-2.017-0.09-3.085c-0.791,2.018-1.907,3.57-3.352,4.657c-1.444,1.089-3.136,1.632-5.072,1.632
				c-1.504,0-2.77-0.336-3.798-1.009c-1.029-0.672-1.859-1.592-2.492-2.759c-0.633-1.166-1.088-2.511-1.364-4.034
				c-0.277-1.522-0.416-3.135-0.416-4.836c0-2.018,0.208-3.925,0.624-5.726c0.415-1.8,1.087-3.382,2.017-4.746
				c0.929-1.365,2.155-2.442,3.679-3.234C61.506,121.677,63.375,121.281,65.591,121.281z M65.056,122.408
				c-1.423,0-2.63,0.366-3.618,1.099c-0.989,0.731-1.78,1.69-2.374,2.877c-0.593,1.187-1.028,2.552-1.306,4.094
				c-0.276,1.543-0.414,3.146-0.414,4.806c0,1.583,0.098,3.066,0.296,4.451s0.524,2.601,0.979,3.648
				c0.455,1.049,1.048,1.879,1.78,2.492c0.731,0.613,1.632,0.92,2.7,0.92c0.869,0,1.729-0.247,2.581-0.742
				c0.85-0.494,1.611-1.195,2.284-2.106c0.672-0.909,1.206-2.037,1.602-3.382c0.396-1.344,0.593-2.887,0.593-4.628v-12.104
				C68.694,122.883,66.994,122.408,65.056,122.408z"/>
			<path fill="#FFFFFF" d="M102.674,147.803c-0.476,0.08-1.029,0.178-1.662,0.297c-0.554,0.08-1.188,0.178-1.898,0.297
				c-0.712,0.118-1.523,0.217-2.433,0.297l-0.594-0.237c-0.198-0.673-0.336-1.454-0.415-2.344c-0.079-0.891-0.14-1.729-0.178-2.521
				c-0.712,1.661-1.81,2.946-3.293,3.856s-3.175,1.364-5.073,1.364c-2.176,0-3.688-0.612-4.539-1.839
				c-0.851-1.226-1.275-2.887-1.275-4.984v-0.059c0-2.531,0.89-4.549,2.67-6.053c1.78-1.503,4.707-2.254,8.781-2.254
				c0.514,0,0.998,0.01,1.453,0.029c0.454,0.021,0.88,0.029,1.276,0.029c0-0.865,0.009-1.711,0.029-2.538
				c0.02-0.826,0.029-1.573,0.029-2.242c0-2.243-0.367-3.896-1.104-4.958s-1.999-1.594-3.788-1.594
				c-1.034,0-2.028,0.178-2.983,0.533l-1.729,4.807c-0.12,0.079-0.31,0.129-0.568,0.148c-0.258,0.021-0.507,0.029-0.745,0.029
				c-1.542,0-2.314-0.672-2.314-2.018c0-0.593,0.149-1.165,0.446-1.72c0.296-0.554,0.79-1.042,1.483-1.462
				c0.693-0.422,1.596-0.768,2.709-1.039c1.111-0.271,2.482-0.406,4.11-0.406c3.098,0,5.213,0.593,6.345,1.779
				s1.698,3.066,1.698,5.637c0,1.898-0.021,4.034-0.06,6.408c-0.039,2.373-0.06,4.509-0.06,6.407c0,0.792,0.03,1.612,0.089,2.463
				c0.061,0.851,0.169,1.651,0.327,2.402l3.264,0.713v0.773H102.674z M95.494,134.928c-0.438-0.038-0.955-0.079-1.552-0.118
				c-0.598-0.039-1.175-0.06-1.73-0.06c-1.433,0-2.616,0.169-3.551,0.504c-0.935,0.337-1.671,0.801-2.207,1.395
				c-0.538,0.594-0.915,1.286-1.134,2.077c-0.219,0.792-0.329,1.622-0.329,2.491c0,1.78,0.299,3.166,0.896,4.153
				c0.597,0.99,1.552,1.483,2.865,1.483c1.988,0,3.608-0.83,4.861-2.491c1.254-1.662,1.881-3.917,1.881-6.764L95.494,134.928
				L95.494,134.928z"/>
			<path fill="#FFFFFF" d="M133.881,106.982c2.412,0,4.519,0.347,6.319,1.038c1.8,0.692,3.282,1.83,4.45,3.412
				c1.166,1.582,2.037,3.639,2.61,6.17c0.572,2.532,0.86,5.637,0.86,9.315c0,3.402-0.258,6.458-0.771,9.167
				c-0.515,2.71-1.364,5.014-2.551,6.912c-1.188,1.899-2.76,3.353-4.718,4.361s-4.381,1.513-7.268,1.513
				c-2.453,0-4.579-0.347-6.378-1.038c-1.801-0.692-3.293-1.829-4.48-3.412c-1.187-1.582-2.067-3.648-2.641-6.2
				c-0.572-2.551-0.859-5.666-0.859-9.345c0-3.401,0.257-6.457,0.771-9.167c0.514-2.709,1.364-5.003,2.551-6.882
				s2.769-3.323,4.747-4.332C128.502,107.486,130.953,106.982,133.881,106.982z M133.377,108.229c-1.894,0-3.531,0.457-4.911,1.369
				c-1.382,0.912-2.516,2.222-3.402,3.928c-0.889,1.706-1.549,3.779-1.982,6.219c-0.434,2.44-0.65,5.187-0.65,8.242
				c0,6.745,0.916,11.704,2.751,14.879c1.834,3.174,4.547,4.76,8.136,4.76c1.894,0,3.53-0.456,4.912-1.368
				c1.38-0.912,2.515-2.223,3.402-3.928c0.887-1.706,1.548-3.779,1.982-6.219c0.434-2.44,0.65-5.188,0.65-8.243
				c0-6.784-0.918-11.753-2.751-14.907C139.678,109.807,136.967,108.229,133.377,108.229z"/>
			<path fill="#FFFFFF" d="M162.479,148.396h-10.146v-0.771l0.891-0.355c0.632-0.237,1.423-0.475,2.372-0.713V108.05l-3.916-0.771
				v-0.771c0.594-0.119,1.246-0.237,1.958-0.356c0.633-0.079,1.375-0.178,2.226-0.296c0.85-0.119,1.81-0.238,2.877-0.356
				l0.594,0.297c-0.08,0.91-0.129,2.037-0.148,3.382c-0.02,1.346-0.029,3.007-0.029,4.984v32.395
				c1.068,0.238,1.878,0.476,2.433,0.713l0.89,0.355v0.77H162.479z"/>
			<path fill="#FFFFFF" d="M165.801,148.396v-0.771c0.276-0.079,0.613-0.197,1.009-0.355c0.632-0.237,1.503-0.475,2.611-0.713
				v-22.724l-3.62-0.771v-0.771c0.514-0.118,1.127-0.237,1.84-0.355c0.593-0.079,1.305-0.179,2.136-0.297
				c0.83-0.119,1.759-0.217,2.788-0.297l0.534,0.237c-0.079,0.752-0.129,1.721-0.147,2.907c-0.021,1.187-0.03,2.335-0.03,3.441
				v18.63c1.146,0.277,1.997,0.515,2.551,0.713c0.356,0.158,0.673,0.276,0.949,0.355v0.771H165.801z M173.692,112.678
				c0,0.911-0.229,1.632-0.683,2.166c-0.455,0.534-1.078,0.801-1.869,0.801c-0.751,0-1.345-0.267-1.78-0.801
				c-0.435-0.534-0.652-1.216-0.652-2.047c0-0.909,0.228-1.641,0.683-2.195c0.454-0.554,1.077-0.831,1.869-0.831
				c0.75,0,1.344,0.268,1.779,0.802C173.474,111.105,173.692,111.809,173.692,112.678z"/>
			<path fill="#FFFFFF" d="M221.93,148.396h-6.943v-17.325c0-1.067-0.079-2.076-0.236-3.026c-0.159-0.948-0.426-1.779-0.801-2.491
				c-0.377-0.712-0.89-1.276-1.543-1.691c-0.652-0.415-1.454-0.623-2.403-0.623c-0.989,0-1.928,0.248-2.818,0.741
				c-0.89,0.496-1.671,1.208-2.343,2.137c-0.674,0.93-1.208,2.067-1.603,3.412c-0.396,1.345-0.593,2.868-0.593,4.568v12.459
				c1.106,0.238,1.996,0.476,2.67,0.713c0.395,0.158,0.731,0.276,1.008,0.355v0.771h-7.179v-17.325c0-1.067-0.08-2.076-0.237-3.026
				c-0.158-0.948-0.426-1.779-0.801-2.491c-0.376-0.712-0.881-1.276-1.514-1.691c-0.633-0.415-1.443-0.623-2.433-0.623
				c-0.99,0-1.929,0.248-2.817,0.741c-0.891,0.496-1.672,1.208-2.345,2.137c-0.673,0.93-1.206,2.067-1.602,3.412
				s-0.593,2.868-0.593,4.568v12.459c0.553,0.119,1.077,0.238,1.572,0.356c0.493,0.119,0.898,0.237,1.216,0.356
				c0.396,0.158,0.731,0.276,1.009,0.355v0.771h-10.917v-0.771c0.276-0.079,0.612-0.197,1.008-0.355
				c0.633-0.237,1.504-0.475,2.611-0.713v-22.724l-3.619-0.771v-0.771c0.513-0.118,1.127-0.237,1.839-0.355
				c0.554-0.079,1.235-0.179,2.047-0.297c0.811-0.119,1.711-0.217,2.7-0.297l0.534,0.237v5.933c0.751-1.977,1.878-3.52,3.381-4.628
				c1.504-1.106,3.343-1.66,5.519-1.66c1.978,0,3.55,0.504,4.717,1.513c1.166,1.008,1.889,2.64,2.166,4.895
				c0.751-2.018,1.888-3.59,3.411-4.717c1.522-1.127,3.371-1.69,5.548-1.69c1.306,0,2.412,0.228,3.322,0.682
				c0.91,0.456,1.632,1.078,2.166,1.869c0.534,0.792,0.92,1.712,1.157,2.759c0.237,1.049,0.356,2.146,0.356,3.293v16.731
				c1.067,0.238,1.877,0.476,2.433,0.713c0.355,0.158,0.671,0.276,0.949,0.355v0.77H221.93z"/>
			<path fill="#FFFFFF" d="M228.218,123.833l-3.323-0.771v-0.771c0.476-0.118,1.049-0.237,1.722-0.355
				c0.553-0.079,1.216-0.179,1.987-0.297c0.771-0.119,1.632-0.217,2.581-0.297l0.594,0.237v5.933
				c0.75-2.017,1.858-3.568,3.322-4.657c1.463-1.087,3.164-1.631,5.103-1.631c1.503,0,2.768,0.346,3.797,1.038
				c1.028,0.692,1.85,1.611,2.462,2.759c0.613,1.147,1.059,2.482,1.335,4.005s0.416,3.136,0.416,4.836
				c0,2.017-0.207,3.926-0.623,5.725c-0.415,1.801-1.089,3.383-2.017,4.747c-0.931,1.365-2.146,2.442-3.649,3.234
				c-1.504,0.791-3.362,1.186-5.577,1.186c-0.831,0-1.642-0.039-2.433-0.118c-0.792-0.08-1.504-0.158-2.136-0.237v9.968l3.915,0.89
				v0.713c-0.555,0.078-1.186,0.178-1.898,0.296c-0.633,0.079-1.385,0.158-2.254,0.237c-0.871,0.079-1.82,0.157-2.849,0.237
				l-0.593-0.415c0.079-0.634,0.118-1.326,0.118-2.077c0-0.752,0-1.641,0-2.67V123.833z M238.779,123.239
				c-0.871,0-1.73,0.248-2.581,0.741c-0.851,0.496-1.603,1.197-2.255,2.106c-0.652,0.911-1.178,2.048-1.572,3.412
				c-0.396,1.365-0.593,2.898-0.593,4.599v12.104c0.75,0.515,1.552,0.881,2.402,1.098c0.85,0.218,1.729,0.326,2.641,0.326
				c1.424,0,2.63-0.365,3.619-1.098c0.988-0.731,1.78-1.69,2.373-2.878c0.594-1.186,1.028-2.551,1.306-4.094
				c0.276-1.543,0.415-3.145,0.415-4.806c0-1.582-0.1-3.064-0.296-4.45c-0.199-1.384-0.525-2.601-0.979-3.649
				c-0.456-1.047-1.049-1.878-1.78-2.491C240.746,123.546,239.847,123.239,238.779,123.239z"/>
			<path fill="#FFFFFF" d="M252.425,148.396v-0.771c0.276-0.079,0.613-0.197,1.009-0.355c0.632-0.237,1.503-0.475,2.61-0.713
				v-22.724l-3.619-0.771v-0.771c0.514-0.118,1.127-0.237,1.84-0.355c0.593-0.079,1.305-0.179,2.136-0.297
				c0.83-0.119,1.759-0.217,2.788-0.297l0.534,0.237c-0.079,0.752-0.129,1.721-0.148,2.907c-0.021,1.187-0.029,2.335-0.029,3.441
				v18.63c1.146,0.277,1.997,0.515,2.552,0.713c0.354,0.158,0.672,0.276,0.948,0.355v0.771H252.425z M264.885,108.881l-8.129,7.951
				h-1.187v-0.713l4.983-7.95h4.332v0.712H264.885z"/>
			<path fill="#FFFFFF" d="M288.617,147.803c-0.475,0.08-1.029,0.178-1.661,0.297c-0.555,0.08-1.187,0.178-1.898,0.297
				c-0.713,0.118-1.523,0.217-2.433,0.297l-0.594-0.237c-0.198-0.673-0.336-1.454-0.415-2.344c-0.08-0.891-0.14-1.729-0.179-2.521
				c-0.711,1.661-1.809,2.946-3.293,3.856c-1.482,0.91-3.174,1.364-5.072,1.364c-2.176,0-3.689-0.612-4.539-1.839
				c-0.852-1.226-1.275-2.887-1.275-4.984v-0.059c0-2.531,0.89-4.549,2.67-6.053c1.779-1.503,4.707-2.254,8.78-2.254
				c0.514,0,0.999,0.01,1.454,0.029c0.454,0.021,0.88,0.029,1.275,0.029c0-0.865,0.01-1.711,0.03-2.538
				c0.02-0.826,0.029-1.573,0.029-2.242c0-2.243-0.367-3.896-1.104-4.958c-0.735-1.062-1.998-1.594-3.787-1.594
				c-1.035,0-2.028,0.178-2.982,0.533l-1.73,4.807c-0.119,0.079-0.309,0.129-0.566,0.148c-0.26,0.021-0.508,0.029-0.746,0.029
				c-1.543,0-2.313-0.672-2.313-2.018c0-0.593,0.147-1.165,0.444-1.72c0.297-0.554,0.791-1.042,1.484-1.462
				c0.693-0.422,1.596-0.768,2.708-1.039s2.483-0.406,4.11-0.406c3.099,0,5.214,0.593,6.345,1.779
				c1.132,1.187,1.699,3.066,1.699,5.637c0,1.898-0.021,4.034-0.06,6.408c-0.04,2.373-0.06,4.509-0.06,6.407
				c0,0.792,0.029,1.612,0.089,2.463s0.168,1.651,0.326,2.402l3.264,0.713V147.803z M281.438,134.928
				c-0.437-0.038-0.954-0.079-1.552-0.118c-0.597-0.039-1.174-0.06-1.729-0.06c-1.433,0-2.616,0.169-3.551,0.504
				c-0.935,0.337-1.67,0.801-2.207,1.395c-0.538,0.594-0.915,1.286-1.134,2.077c-0.219,0.792-0.328,1.622-0.328,2.491
				c0,1.78,0.297,3.166,0.894,4.153c0.598,0.99,1.553,1.483,2.865,1.483c1.989,0,3.609-0.83,4.862-2.491
				c1.254-1.662,1.88-3.917,1.88-6.764V134.928z"/>
			<path fill="#FFFFFF" d="M304.28,121.281c0.792,0,1.593,0.04,2.403,0.119c0.811,0.08,1.532,0.158,2.166,0.237V108.05l-4.153-0.771
				v-0.771c0.594-0.119,1.266-0.237,2.017-0.356c0.633-0.079,1.395-0.178,2.285-0.296c0.89-0.119,1.888-0.238,2.996-0.356
				l0.594,0.297c-0.08,0.87-0.129,2.047-0.148,3.53c-0.021,1.483-0.03,3.194-0.03,5.133v26.817c0,0.989,0.03,1.909,0.09,2.759
				c0.059,0.852,0.127,1.612,0.207,2.284l3.204,0.713v0.712c-0.475,0.118-1.029,0.236-1.662,0.355
				c-0.554,0.08-1.196,0.178-1.928,0.297c-0.732,0.118-1.553,0.217-2.462,0.297l-0.594-0.237c-0.158-0.91-0.267-1.859-0.326-2.849
				c-0.06-0.987-0.089-2.017-0.089-3.085c-0.792,2.018-1.909,3.57-3.353,4.657c-1.444,1.089-3.136,1.632-5.072,1.632
				c-1.505,0-2.77-0.336-3.798-1.009c-1.029-0.672-1.859-1.592-2.492-2.759c-0.633-1.166-1.088-2.511-1.364-4.034
				c-0.277-1.522-0.415-3.135-0.415-4.836c0-2.018,0.207-3.925,0.622-5.726c0.416-1.8,1.088-3.382,2.018-4.746
				c0.929-1.365,2.155-2.442,3.679-3.234C300.196,121.677,302.065,121.281,304.28,121.281z M303.747,122.408
				c-1.424,0-2.631,0.366-3.619,1.099c-0.989,0.731-1.78,1.69-2.374,2.877c-0.593,1.187-1.029,2.552-1.305,4.094
				c-0.277,1.543-0.415,3.146-0.415,4.806c0,1.583,0.098,3.066,0.296,4.451s0.523,2.601,0.979,3.648
				c0.454,1.049,1.047,1.879,1.78,2.492c0.73,0.613,1.631,0.92,2.699,0.92c0.869,0,1.729-0.247,2.581-0.742
				c0.85-0.494,1.611-1.195,2.284-2.106c0.672-0.909,1.206-2.037,1.602-3.382c0.396-1.344,0.594-2.887,0.594-4.628v-12.104
				C307.386,122.883,305.685,122.408,303.747,122.408z"/>
			<path fill="#FFFFFF" d="M341.364,147.803c-0.476,0.08-1.029,0.178-1.662,0.297c-0.555,0.08-1.187,0.178-1.898,0.297
				c-0.712,0.118-1.523,0.217-2.433,0.297l-0.594-0.237c-0.198-0.673-0.336-1.454-0.415-2.344c-0.08-0.891-0.14-1.729-0.178-2.521
				c-0.712,1.661-1.81,2.946-3.293,3.856s-3.175,1.364-5.073,1.364c-2.176,0-3.688-0.612-4.539-1.839
				c-0.851-1.226-1.275-2.887-1.275-4.984v-0.059c0-2.531,0.891-4.549,2.67-6.053c1.78-1.503,4.707-2.254,8.781-2.254
				c0.514,0,0.998,0.01,1.453,0.029c0.455,0.021,0.88,0.029,1.276,0.029c0-0.865,0.009-1.711,0.029-2.538
				c0.02-0.826,0.029-1.573,0.029-2.242c0-2.243-0.367-3.896-1.104-4.958s-1.999-1.594-3.788-1.594
				c-1.034,0-2.028,0.178-2.982,0.533l-1.729,4.807c-0.12,0.079-0.31,0.129-0.567,0.148c-0.26,0.021-0.508,0.029-0.745,0.029
				c-1.544,0-2.314-0.672-2.314-2.018c0-0.593,0.148-1.165,0.445-1.72c0.296-0.554,0.79-1.042,1.484-1.462
				c0.692-0.422,1.595-0.768,2.707-1.039c1.113-0.271,2.483-0.406,4.111-0.406c3.098,0,5.213,0.593,6.344,1.779
				c1.133,1.187,1.699,3.066,1.699,5.637c0,1.898-0.021,4.034-0.06,6.408c-0.039,2.373-0.06,4.509-0.06,6.407
				c0,0.792,0.029,1.612,0.089,2.463s0.168,1.651,0.327,2.402l3.264,0.713L341.364,147.803L341.364,147.803z M334.185,134.928
				c-0.438-0.038-0.955-0.079-1.553-0.118c-0.597-0.039-1.173-0.06-1.729-0.06c-1.433,0-2.616,0.169-3.55,0.504
				c-0.936,0.337-1.671,0.801-2.208,1.395c-0.538,0.594-0.915,1.286-1.134,2.077c-0.219,0.792-0.328,1.622-0.328,2.491
				c0,1.78,0.298,3.166,0.895,4.153c0.597,0.99,1.552,1.483,2.864,1.483c1.989,0,3.609-0.83,4.862-2.491
				c1.254-1.662,1.881-3.917,1.881-6.764V134.928z"/>
		</g>
		<g>
			<path fill="#FFFFFF" d="M87.364,87.827H41.386V83.18c0.539-0.405,1.146-0.809,1.819-1.213c0.538-0.337,1.213-0.707,2.021-1.111
				c0.808-0.405,1.718-0.773,2.729-1.112V26.086c-0.944-0.336-1.819-0.723-2.628-1.161c-0.808-0.438-1.482-0.825-2.021-1.163
				c-0.675-0.404-1.281-0.808-1.819-1.213v-4.547h30.315v4.547c-0.54,0.405-1.18,0.809-1.92,1.213
				c-0.606,0.338-1.364,0.725-2.274,1.163c-0.909,0.438-1.904,0.825-2.98,1.161v54.466h10.913c0.538-2.56,1.128-4.884,1.769-6.973
				c0.64-2.087,1.229-3.872,1.769-5.355c0.673-1.751,1.313-3.3,1.92-4.648h6.366L87.364,87.827L87.364,87.827z"/>
			<path fill="#FFFFFF" d="M148.397,87.827h-27.99V83.18c0.471-0.405,1.011-0.809,1.616-1.213c0.539-0.337,1.146-0.707,1.819-1.111
				c0.673-0.405,1.48-0.773,2.425-1.112l-2.323-9.6h-17.482c-0.202,1.551-0.404,3.167-0.606,4.851
				c-0.202,1.685-0.403,3.302-0.605,4.851c0.874,0.338,1.667,0.707,2.374,1.111s1.33,0.775,1.87,1.111
				c0.605,0.405,1.145,0.775,1.617,1.112v4.647H88.879V83.18c0.337-0.405,0.741-0.809,1.213-1.213
				c0.404-0.337,0.858-0.707,1.364-1.111c0.505-0.405,1.128-0.773,1.87-1.112c2.559-10.643,5.254-21.051,8.084-31.224
				c2.829-10.172,6.027-20.345,9.6-30.518h16.066l16.977,61.741c0.673,0.339,1.263,0.707,1.768,1.112
				c0.506,0.404,0.961,0.774,1.365,1.111l1.212,1.213v4.648H148.397z M122.023,63.272l-8.084-32.134
				c-0.605,2.425-1.212,5.036-1.818,7.831c-0.607,2.797-1.196,5.626-1.769,8.489s-1.111,5.658-1.617,8.386
				c-0.505,2.729-0.927,5.205-1.263,7.428C107.472,63.272,122.023,63.272,122.023,63.272z"/>
			<path fill="#FFFFFF" d="M210.037,50.844c0,6.131-0.624,11.503-1.87,16.117c-1.246,4.615-3.233,8.473-5.961,11.57
				c-2.729,3.099-6.266,5.424-10.611,6.972c-4.345,1.551-9.617,2.324-15.814,2.324h-24.655V83.18
				c0.538-0.405,1.145-0.809,1.818-1.213c0.539-0.337,1.213-0.707,2.021-1.111c0.809-0.405,1.718-0.773,2.728-1.112V26.086
				c-1.01-0.336-1.919-0.723-2.728-1.161s-1.482-0.825-2.021-1.163c-0.674-0.404-1.247-0.808-1.718-1.213v-4.547h29.507
				c4.985,0,9.312,0.573,12.984,1.718c3.671,1.146,6.72,3.016,9.146,5.608c2.425,2.595,4.227,5.979,5.406,10.155
				C209.446,39.662,210.037,44.78,210.037,50.844z M192.656,53.37c0-5.053-0.219-9.364-0.657-12.935
				c-0.438-3.571-1.197-6.483-2.272-8.741c-1.079-2.257-2.494-3.924-4.245-5.002c-1.753-1.077-3.908-1.617-6.467-1.617
				c-0.944,0-1.819,0.018-2.628,0.051c-0.808,0.034-1.482,0.086-2.021,0.152V80.45c0.538,0.137,1.161,0.22,1.87,0.253
				c0.707,0.035,1.397,0.051,2.071,0.051c2.692,0,4.967-0.488,6.82-1.465c1.852-0.977,3.335-2.542,4.446-4.699
				c1.112-2.155,1.903-4.984,2.374-8.488C192.419,62.6,192.656,58.355,192.656,53.37z"/>
			<path fill="#FFFFFF" d="M245.807,16.588c5.188,0,9.55,0.641,13.086,1.919c3.537,1.28,6.382,3.319,8.539,6.114
				c2.155,2.796,3.688,6.417,4.598,10.862c0.909,4.446,1.364,9.802,1.364,16.067c0,5.861-0.505,11.133-1.516,15.814
				c-1.011,4.683-2.678,8.656-5.002,11.924s-5.406,5.776-9.246,7.527s-8.624,2.628-14.35,2.628c-5.188,0-9.549-0.642-13.085-1.92
				c-3.537-1.279-6.384-3.334-8.539-6.164c-2.156-2.829-3.688-6.468-4.598-10.913c-0.91-4.447-1.364-9.835-1.364-16.168
				c0-5.861,0.487-11.115,1.465-15.764c0.976-4.648,2.628-8.59,4.951-11.823c2.324-3.233,5.422-5.726,9.297-7.479
				C235.28,17.464,240.08,16.588,245.807,16.588z M244.595,23.661c-2.021,0-3.774,0.522-5.255,1.565
				c-1.482,1.046-2.695,2.713-3.638,5.002c-0.944,2.292-1.635,5.29-2.071,8.994c-0.439,3.706-0.657,8.185-0.657,13.439
				c0,5.593,0.235,10.291,0.707,14.097c0.471,3.807,1.179,6.855,2.122,9.145c0.942,2.291,2.138,3.926,3.588,4.9
				c1.447,0.978,3.147,1.466,5.103,1.466c2.021,0,3.772-0.521,5.255-1.566c1.48-1.043,2.678-2.728,3.587-5.052
				c0.909-2.324,1.582-5.321,2.021-8.993c0.437-3.672,0.656-8.136,0.656-13.39c0-5.659-0.236-10.373-0.707-14.146
				c-0.472-3.772-1.179-6.804-2.122-9.095c-0.944-2.29-2.122-3.924-3.537-4.901C248.232,24.15,246.547,23.661,244.595,23.661z"/>
			<path fill="#FFFFFF" d="M353.222,66c0,3.032-0.522,5.861-1.566,8.489c-1.045,2.627-2.712,4.936-5.002,6.922
				c-2.291,1.987-5.254,3.554-8.893,4.698c-3.638,1.146-8.051,1.718-13.237,1.718h-25.868V83.18
				c0.538-0.405,1.145-0.809,1.818-1.213c0.538-0.337,1.213-0.707,2.021-1.111c0.809-0.405,1.719-0.773,2.729-1.112V26.086
				c-1.011-0.336-1.921-0.723-2.729-1.161s-1.482-0.825-2.021-1.163c-0.674-0.404-1.247-0.808-1.718-1.213v-4.547h28.698
				c8.016,0,13.775,1.415,17.279,4.244c3.502,2.829,5.255,6.771,5.255,11.823c0,3.907-1.096,7.209-3.284,9.902
				c-2.189,2.695-5.34,4.481-9.448,5.356c5.456,0.471,9.481,2.121,12.075,4.951C351.924,57.108,353.222,61.017,353.222,66z
				 M332.911,36.09c0-3.974-0.657-6.803-1.971-8.488c-1.313-1.683-3.284-2.526-5.912-2.526h-3.132v22.737h3.738
				c2.56,0,4.412-1.045,5.559-3.134C332.337,42.592,332.911,39.729,332.911,36.09z M335.74,67.567c0-4.193-0.809-7.423-2.426-9.688
				c-1.616-2.265-4.345-3.398-8.185-3.398h-3.233v20.086c0,2.637,0.369,4.361,1.111,5.172c0.74,0.812,2.122,1.218,4.144,1.218
				c2.963,0,5.136-1.132,6.518-3.397C335.049,75.294,335.74,71.963,335.74,67.567z"/>
		</g>
	</g>
	<line fill="none" stroke="#FFFFFF" stroke-width="3" stroke-miterlimit="10" x1="22.477" y1="99.055" x2="370.477" y2="99.055"/>
</g>
</svg>
